{
    "fluentMethods": true,
    "relationships": [
        {
            "relationshipName": "login",
            "otherEntityName": "user",
            "relationshipType": "one-to-one",
            "otherEntityField": "login",
            "ownerSide": true,
            "otherEntityRelationshipName": "agente_saude"
        }
    ],
    "fields": [
        {
            "fieldName": "nome",
            "fieldType": "String"
        },
        {
            "fieldName": "cpf",
            "fieldType": "String",
            "fieldValidateRules": [
                "maxlength"
            ],
            "fieldValidateRulesMaxlength": "11"
        },
        {
            "fieldName": "crm",
            "fieldType": "String"
        },
        {
            "fieldName": "coren",
            "fieldType": "String"
        },
        {
            "fieldName": "inscricao_municipal",
            "fieldType": "String"
        }
    ],
    "changelogDate": "20170610043107",
    "dto": "no",
    "service": "serviceClass",
    "entityTableName": "agente_saude",
    "pagination": "no"
}
